Data Visualization and Data Wrangling in R
…
## Example application of grouping: Counting

Let's go back to the raw data:

.tiny-font[

```r
fresh_metadata <- read_csv("../data/csvs/fresh_subset_workshop_20221017.csv")

fresh_metadata
```

```
# A tibble: 1,405 × 32
   study_id   visit…¹ ampli…² ampli…³ ampli…⁴ ampli…⁵ ampli…⁶ date_col…⁷ nugen…⁸
   <chr>      <chr>   <chr>     <dbl>   <dbl>   <dbl>   <dbl> <date>       <dbl>
 1 127-33-01… 1-024-5 CT2     2.92e-3 0.992   5.08e-4  141595 2013-09-20      NA
 2 127-33-01… 1-026-0 CT2     4.69e-4 0.998   8.38e-4   89485 2013-08-26      NA
 3 127-33-00… 1-012-0 CT1     9.91e-1 0.00755 5.88e-4   79982 2013-02-18       0
 4 127-33-00… 1-011-5 CT2     2.37e-2 0.973   1.55e-3   76645 NA              NA
 5 127-33-01… 1-025-0 CT1     9.72e-1 0       7.60e-3   55934 2013-08-19      NA
 6 127-33-03… 1-013-0 CT2     1.34e-1 0.784   8.02e-2   62656 2013-09-03       0
 7 127-33-02… 1-011-5 CT1     5.57e-1 0.437   3.25e-3   74496 2013-08-23       0
 8 127-33-01… 1-024-0 CT3     2.77e-2 0.105   6.15e-1   57430 2013-09-17       0
 9 127-33-00… 1-012-5 CT4     1.39e-2 0.00886 1.87e-1   69615 2013-04-26       3
10 127-33-02… 1-011-0 CT3     1.79e-3 0.457   5.34e-1   51453 2013-08-20       0
# … with 1,395 more rows, 23 more variables: nugent_mobiluncus <dbl>,
#   nugent_lactobacillus <dbl>, nugent_total_score <dbl>,
#   nugent_interpretation <chr>, sti_mycoplasma_genitalium_pcr <chr>,
#   sti_trichomonas_vaginalis_pcr <chr>, sti_neisseria_gonorrhoeae_pcr <chr>,
#   sti_chlamydia_trachomatis_pcr <chr>, bloodcount_cd8_cellsperul <dbl>,
#   bloodcount_cd8_percent <dbl>, bloodcount_cd4_cellsperul <dbl>,
#   bloodcount_cd4_percent <dbl>, bloodcount_cd45_cellsperul <dbl>, …
# ℹ Use `print(n = ...)` to see more rows, and `colnames()` to see all variable names
```
…
---

## Example application of grouping: Counting

Let's group it:

.tiny-font[

```r
fresh_metadata %>%
  group_by(amplicon_ct_assignment)
```

```
# A tibble: 1,405 × 32
# Groups:   amplicon_ct_assignment [4]
   study_id   visit…¹ ampli…² ampli…³ ampli…⁴ ampli…⁵ ampli…⁶ date_col…⁷ nugen…⁸
   <chr>      <chr>   <chr>     <dbl>   <dbl>   <dbl>   <dbl> <date>       <dbl>
 1 127-33-01… 1-024-5 CT2     2.92e-3 0.992   5.08e-4  141595 2013-09-20      NA
 2 127-33-01… 1-026-0 CT2     4.69e-4 0.998   8.38e-4   89485 2013-08-26      NA
 3 127-33-00… 1-012-0 CT1     9.91e-1 0.00755 5.88e-4   79982 2013-02-18       0
 4 127-33-00… 1-011-5 CT2     2.37e-2 0.973   1.55e-3   76645 NA              NA
 5 127-33-01… 1-025-0 CT1     9.72e-1 0       7.60e-3   55934 2013-08-19      NA
 6 127-33-03… 1-013-0 CT2     1.34e-1 0.784   8.02e-2   62656 2013-09-03       0
 7 127-33-02… 1-011-5 CT1     5.57e-1 0.437   3.25e-3   74496 2013-08-23       0
 8 127-33-01… 1-024-0 CT3     2.77e-2 0.105   6.15e-1   57430 2013-09-17       0
 9 127-33-00… 1-012-5 CT4     1.39e-2 0.00886 1.87e-1   69615 2013-04-26       3
10 127-33-02… 1-011-0 CT3     1.79e-3 0.457   5.34e-1   51453 2013-08-20       0
# … with 1,395 more rows, 23 more variables: nugent_mobiluncus <dbl>,
#   nugent_lactobacillus <dbl>, nugent_total_score <dbl>,
#   nugent_interpretation <chr>, sti_mycoplasma_genitalium_pcr <chr>,
#   sti_trichomonas_vaginalis_pcr <chr>, sti_neisseria_gonorrhoeae_pcr <chr>,
#   sti_chlamydia_trachomatis_pcr <chr>, bloodcount_cd8_cellsperul <dbl>,
#   bloodcount_cd8_percent <dbl>, bloodcount_cd4_cellsperul <dbl>,
#   bloodcount_cd4_percent <dbl>, bloodcount_cd45_cellsperul <dbl>, …
# ℹ Use `print(n = ...)` to see more rows, and `colnames()` to see all variable names
```
…
---

## Example application of grouping: Counting

Now let's group by multiple variables:

.tiny-font[

```r
fresh_metadata %>%
  group_by(amplicon_ct_assignment, nugent_interpretation)
```

```
# A tibble: 1,405 × 32
# Groups:   amplicon_ct_assignment, nugent_interpretation [16]
   study_id   visit…¹ ampli…² ampli…³ ampli…⁴ ampli…⁵ ampli…⁶ date_col…⁷ nugen…⁸
   <chr>      <chr>   <chr>     <dbl>   <dbl>   <dbl>   <dbl> <date>       <dbl>
 1 127-33-01… 1-024-5 CT2     2.92e-3 0.992   5.08e-4  141595 2013-09-20      NA
 2 127-33-01… 1-026-0 CT2     4.69e-4 0.998   8.38e-4   89485 2013-08-26      NA
 3 127-33-00… 1-012-0 CT1     9.91e-1 0.00755 5.88e-4   79982 2013-02-18       0
 4 127-33-00… 1-011-5 CT2     2.37e-2 0.973   1.55e-3   76645 NA              NA
 5 127-33-01… 1-025-0 CT1     9.72e-1 0       7.60e-3   55934 2013-08-19      NA
 6 127-33-03… 1-013-0 CT2     1.34e-1 0.784   8.02e-2   62656 2013-09-03       0
 7 127-33-02… 1-011-5 CT1     5.57e-1 0.437   3.25e-3   74496 2013-08-23       0
 8 127-33-01… 1-024-0 CT3     2.77e-2 0.105   6.15e-1   57430 2013-09-17       0
 9 127-33-00… 1-012-5 CT4     1.39e-2 0.00886 1.87e-1   69615 2013-04-26       3
10 127-33-02… 1-011-0 CT3     1.79e-3 0.457   5.34e-1   51453 2013-08-20       0
# … with 1,395 more rows, 23 more variables: nugent_mobiluncus <dbl>,
#   nugent_lactobacillus <dbl>, nugent_total_score <dbl>,
#   nugent_interpretation <chr>, sti_mycoplasma_genitalium_pcr <chr>,
#   sti_trichomonas_vaginalis_pcr <chr>, sti_neisseria_gonorrhoeae_pcr <chr>,
#   sti_chlamydia_trachomatis_pcr <chr>, bloodcount_cd8_cellsperul <dbl>,
#   bloodcount_cd8_percent <dbl>, bloodcount_cd4_cellsperul <dbl>,
#   bloodcount_cd4_percent <dbl>, bloodcount_cd45_cellsperul <dbl>, …
# ℹ Use `print(n = ...)` to see more rows, and `colnames()` to see all variable names
```
…
